@startuml

' hide the spot
' hide circle

' avoid problems with angled crows feet
' skinparam linetype ortho

scale 2

class Student <<(E,lightgreen)>> {
    name
}

class Teacher <<(E,lightgreen)>> {
    name
}

class TeachingCourse <<(R,yellow)>>{
    course_name
}

Student "1...*" - "1" Teacher
(Student, Teacher) . TeachingCourse

@enduml